…
# Dummy datasets

## single model tibble

``` r
data(single_model_tibble)
single_model_tibble
#> # A tibble: 100 × 2
#>    y       pred
#>    <fct>  <dbl>
#>  1 1     0.998 
#>  2 1     0.981 
#>  3 0     0.0770
#>  4 1     0.998 
#>  5 1     0.602 
#>  6 1     0.955 
#>  7 0     0.131 
#>  8 1     0.348 
#>  9 1     0.987 
#> 10 0     0.112 
#> # … with 90 more rows
```

## multi model tibble

``` r
data(multi_model_tibble)
multi_model_tibble
#> # A tibble: 200 × 3
#>    model   y      pred
#>    <chr>   <fct> <dbl>
#>  1 model_1 1     0.971
#>  2 model_1 1     0.359
#>  3 model_1 1     0.842
#>  4 model_1 1     1.00 
#>  5 model_1 1     0.641
#>  6 model_1 1     0.733
#>  7 model_1 0     0.273
#>  8 model_1 1     0.982
#>  9 model_1 1     0.994
#> 10 model_1 0     0.734
#> # … with 190 more rows
```
…
