test-vignette
…
test-vignette

library(nbs)
library(tidyverse)
library(tidymodels)
ggplot2::theme_set(ggplot2::theme_bw())

data(multi_model_tibble)
multi_model_tibble
#> # A tibble: 200 × 3
#>    model   y      pred
#>    <chr>   <fct> <dbl>
#>  1 model_1 1     0.971
#>  2 model_1 1     0.359
#>  3 model_1 1     0.842
#>  4 model_1 1     1.00 
#>  5 model_1 1     0.641
#>  6 model_1 1     0.733
#>  7 model_1 0     0.273
#>  8 model_1 1     0.982
#>  9 model_1 1     0.994
#> 10 model_1 0     0.734
#> # … with 190 more rows
…
